…
    [...]

You can redirect everything to file in your shell as usual 
(`./esphomelogger ...  > foo.dat`). As the data is tab-separated it can be
imported into other software, easily. E.g. into R:

    library(tidyverse)
    dat <- read_delim("foo.dat", delim="\t")

Let's check if it was read correctly:

    > dat
    # A tibble: 37 × 3
       timestamp           variable                               value
       <dttm>              <chr>                                  <chr>
     1 2023-01-07 13:14:49 test-plug - Status                     True
     2 2023-01-07 13:14:49 test-plug - Electric Consumption [kWh] 0.0
     3 2023-01-07 13:14:49 test-plug - Voltage                    227.00172424316406
     4 2023-01-07 13:14:49 test-plug - Ampere                     0.0
     5 2023-01-07 13:14:49 test-plug - Power                      0.0
     6 2023-01-07 13:14:49 test-plug - Wifi Signal                -59.0
     7 2023-01-07 13:14:49 test-plug - Uptime                     60352.62109375
     8 2023-01-07 13:14:49 test-plug - Switch                     True
     9 2023-01-07 13:14:49 test-plug - IP Address                 192.168.0.55
    10 2023-01-07 13:14:49 test-plug - Wi-Fi SSID                 Foolan
    # … with 27 more rows
    # ℹ Use `print(n = ...)` to see more rows
…
